10000002612611161บริษัท นกเงือกโซลูชั่น จำกัด                 050000001200000001753750000000001399200000000699600000000699600
23560500575223003อดิเทพ                        ไชยสาร                             00000001975000000000075000
23401600666494003รัทธสิทธิ์                    สุนทร                              00000001575000000000075000
21579900204623003รัฐปกร                        ธรรมสรางกูร                        00000001090000000000054500
21579900138418003กฤษฎา                         วงค์นันตา                          00000001975000000000075000
21570400099474003บัญญัติ                       ปัญญาโกญ                           00000001102500000000055100
21570300112622003ปฏิภาณ                        สมทะนะ                             00000001020000000000051000
21560100338406005สุวนันท์                      สุยะต๊ะ                            00000000940000000000047000
21560100306369003วัชรพันธ์                     ผัดดี                              00000001020000000000051000
21560100153198005โสรยา                         หล้าปา                             00000000970000000000048500
21509901606695003ปฎิพล                         ปันยวง                             00000001020000000000051000
21500700076747003อณุพนธ์                       ประเสริฐ                           00000000830000000000041500
